{
    "help" : [
        {
            "section": {
                "title" : "Section One Title",
                "content" : [
                    { 
                        "subject": "Subject One",
                        "body": "Lorem ipsum dolor sit amet, consectetur adipiscing elit. Sed euismod justo id ligula placerat id fringilla mi vestibulum. Ut lobortis fringilla elit, sed pharetra mauris lacinia ac. Pellentesque et tincidunt tellus. Etiam et est ut diam congue vehicula. Mauris commodo leo quis quam hendrerit sed tincidunt nibh posuere. Vivamus nec tellus fringilla erat tincidunt auctor. Duis sit amet erat justo, vitae dignissim urna. Proin sapien metus, tempor et posuere sodales, semper eu erat. Nullam imperdiet vehicula metus et consequat."
                    },
                    {
                        "subject": "Subject Two",
                        "body": "Lorem ipsum dolor sit amet, consectetur adipiscing elit. Sed euismod justo id ligula placerat id fringilla mi vestibulum. Ut lobortis fringilla elit, sed pharetra mauris lacinia ac. Pellentesque et tincidunt tellus. Etiam et est ut diam congue vehicula. Mauris commodo leo quis quam hendrerit sed tincidunt nibh posuere. Vivamus nec tellus fringilla erat tincidunt auctor. Duis sit amet erat justo, vitae dignissim urna. Proin sapien metus, tempor et posuere sodales, semper eu erat. Nullam imperdiet vehicula metus et consequat."
                    },
                    {
                        "subject": "Subject Three",
                        "body": "Lorem ipsum dolor sit amet, consectetur adipiscing elit. Sed euismod justo id ligula placerat id fringilla mi vestibulum. Ut lobortis fringilla elit, sed pharetra mauris lacinia ac. Pellentesque et tincidunt tellus. Etiam et est ut diam congue vehicula. Mauris commodo leo quis quam hendrerit sed tincidunt nibh posuere. Vivamus nec tellus fringilla erat tincidunt auctor. Duis sit amet erat justo, vitae dignissim urna. Proin sapien metus, tempor et posuere sodales, semper eu erat. Nullam imperdiet vehicula metus et consequat."
                    },
                    {
                        "subject": "Subject Four",
                        "body": "Lorem ipsum dolor sit amet, consectetur adipiscing elit. Sed euismod justo id ligula placerat id fringilla mi vestibulum. Ut lobortis fringilla elit, sed pharetra mauris lacinia ac. Pellentesque et tincidunt tellus. Etiam et est ut diam congue vehicula. Mauris commodo leo quis quam hendrerit sed tincidunt nibh posuere. Vivamus nec tellus fringilla erat tincidunt auctor. Duis sit amet erat justo, vitae dignissim urna. Proin sapien metus, tempor et posuere sodales, semper eu erat. Nullam imperdiet vehicula metus et consequat."
                    }
                ]
            }
        },
        {
            "section": {
                "title" : "Section Two Title",
                "content" : [
                    { 
                        "subject": "Subject One",
                        "body": "Lorem ipsum dolor sit amet, consectetur adipiscing elit. Sed euismod justo id ligula placerat id fringilla mi vestibulum. Ut lobortis fringilla elit, sed pharetra mauris lacinia ac. Pellentesque et tincidunt tellus. Etiam et est ut diam congue vehicula. Mauris commodo leo quis quam hendrerit sed tincidunt nibh posuere. Vivamus nec tellus fringilla erat tincidunt auctor. Duis sit amet erat justo, vitae dignissim urna. Proin sapien metus, tempor et posuere sodales, semper eu erat. Nullam imperdiet vehicula metus et consequat."
                    },
                    {
                        "subject": "Subject Two",
                        "body": "Lorem ipsum dolor sit amet, consectetur adipiscing elit. Sed euismod justo id ligula placerat id fringilla mi vestibulum. Ut lobortis fringilla elit, sed pharetra mauris lacinia ac. Pellentesque et tincidunt tellus. Etiam et est ut diam congue vehicula. Mauris commodo leo quis quam hendrerit sed tincidunt nibh posuere. Vivamus nec tellus fringilla erat tincidunt auctor. Duis sit amet erat justo, vitae dignissim urna. Proin sapien metus, tempor et posuere sodales, semper eu erat. Nullam imperdiet vehicula metus et consequat."
                    },
                    {
                        "subject": "Subject Three",
                        "body": "Lorem ipsum dolor sit amet, consectetur adipiscing elit. Sed euismod justo id ligula placerat id fringilla mi vestibulum. Ut lobortis fringilla elit, sed pharetra mauris lacinia ac. Pellentesque et tincidunt tellus. Etiam et est ut diam congue vehicula. Mauris commodo leo quis quam hendrerit sed tincidunt nibh posuere. Vivamus nec tellus fringilla erat tincidunt auctor. Duis sit amet erat justo, vitae dignissim urna. Proin sapien metus, tempor et posuere sodales, semper eu erat. Nullam imperdiet vehicula metus et consequat."
                    },
                    {
                        "subject": "Subject Four",
                        "body": "Lorem ipsum dolor sit amet, consectetur adipiscing elit. Sed euismod justo id ligula placerat id fringilla mi vestibulum. Ut lobortis fringilla elit, sed pharetra mauris lacinia ac. Pellentesque et tincidunt tellus. Etiam et est ut diam congue vehicula. Mauris commodo leo quis quam hendrerit sed tincidunt nibh posuere. Vivamus nec tellus fringilla erat tincidunt auctor. Duis sit amet erat justo, vitae dignissim urna. Proin sapien metus, tempor et posuere sodales, semper eu erat. Nullam imperdiet vehicula metus et consequat."
                    }
                ]
            }
        }
    ] 
}    
